…
    ## Rows: 52179 Columns: 12
    ## ── Column specification ────────────────────────────────────────────────────────
    ## Delimiter: ","
    ## chr (9): uid, victim_last, victim_first, victim_race, victim_age, victim_sex...
    ## dbl (3): reported_date, lat, lon
    ## 
    ## ℹ Use `spec()` to retrieve the full column specification for this data.
    ## ℹ Specify the column types or set `show_col_types = FALSE` to quiet this message.

``` r
homicide_data
```

    ## # A tibble: 52,179 × 12
    ##    uid        reported_date victim_last  victim_first victim_race victim_age
    ##    <chr>              <dbl> <chr>        <chr>        <chr>       <chr>     
    ##  1 Alb-000001      20100504 GARCIA       JUAN         Hispanic    78        
    ##  2 Alb-000002      20100216 MONTOYA      CAMERON      Hispanic    17        
    ##  3 Alb-000003      20100601 SATTERFIELD  VIVIANA      White       15        
    ##  4 Alb-000004      20100101 MENDIOLA     CARLOS       Hispanic    32        
    ##  5 Alb-000005      20100102 MULA         VIVIAN       White       72        
    ##  6 Alb-000006      20100126 BOOK         GERALDINE    White       91        
    ##  7 Alb-000007      20100127 MALDONADO    DAVID        Hispanic    52        
    ##  8 Alb-000008      20100127 MALDONADO    CONNIE       Hispanic    52        
    ##  9 Alb-000009      20100130 MARTIN-LEYVA GUSTAVO      White       56        
    ## 10 Alb-000010      20100210 HERRERA      ISRAEL       Hispanic    43        
    ## # ℹ 52,169 more rows
    ## # ℹ 6 more variables: victim_sex <chr>, city <chr>, state <chr>, lat <dbl>,
    ## #   lon <dbl>, disposition <chr>
…
### Now run prop.test for each of the cities in my dataset

``` r
city_proportion_estimates = homicide_summary |>
  mutate(
    test_results = map2(unsolved_homicides, total_homicides, ~ prop.test(.x, .y) |> tidy())
  ) |>
  unnest(test_results) |>
  select(city_state, estimate, conf.low, conf.high) |>
  arrange(desc(estimate))
city_proportion_estimates
```

    ## # A tibble: 50 × 4
    ##    city_state         estimate conf.low conf.high
    ##    <chr>                 <dbl>    <dbl>     <dbl>
    ##  1 Chicago, IL           0.736    0.724     0.747
    ##  2 New Orleans, LA       0.649    0.623     0.673
    ##  3 Baltimore, MD         0.646    0.628     0.663
    ##  4 San Bernardino, CA    0.618    0.558     0.675
    ##  5 Buffalo, NY           0.612    0.569     0.654
    ##  6 Miami, FL             0.605    0.569     0.640
    ##  7 Stockton, CA          0.599    0.552     0.645
    ##  8 Detroit, MI           0.588    0.569     0.608
    ##  9 Phoenix, AZ           0.551    0.518     0.584
    ## 10 Denver, CO            0.542    0.485     0.598
    ## # ℹ 40 more rows
…
